<?xml version="1.0" encoding="utf-8"?>
<!-- Generator: Adobe Illustrator 23.0.1, SVG Export Plug-In . SVG Version: 6.00 Build 0)  -->
<svg version="1.1" id="Calque_1" xmlns="http://www.w3.org/2000/svg" xmlns:xlink="http://www.w3.org/1999/xlink" x="0px" y="0px"
	 viewBox="0 0 69.93 57.34" style="enable-background:new 0 0 69.93 57.34;" xml:space="preserve">
<style type="text/css">
	.st0{fill:url(#SVGID_1_);}
	.st1{fill:url(#SVGID_2_);}
	.st2{fill:url(#SVGID_3_);}
	.st3{fill:url(#SVGID_4_);}
	.st4{fill:url(#SVGID_5_);}
	.st5{fill:#CDCCCC;}
</style>
<linearGradient id="SVGID_1_" gradientUnits="userSpaceOnUse" x1="5.5524" y1="28.0874" x2="64.7355" y2="28.0874">
	<stop  offset="0" style="stop-color:#52AC6E"/>
	<stop  offset="1" style="stop-color:#3B3686"/>
</linearGradient>
<path class="st0" d="M57.04,35.12c-1.57,0-3.03,0.47-4.25,1.28l-11.7-14.9c1.9-1.66,3.1-4.09,3.1-6.8c0-4.99-4.05-9.04-9.04-9.04
	s-9.04,4.05-9.04,9.04c0,2.72,1.2,5.15,3.1,6.8L17.5,36.4c-1.22-0.81-2.68-1.28-4.25-1.28c-4.25,0-7.7,3.45-7.7,7.7
	s3.45,7.7,7.7,7.7s7.7-3.45,7.7-7.7c0-2.2-0.93-4.17-2.4-5.58l11.73-14.93c1.23,0.79,2.66,1.28,4.19,1.39v11.45
	c-3.94,0.34-7.03,3.64-7.03,7.66c0,4.25,3.45,7.7,7.7,7.7s7.7-3.45,7.7-7.7c0-4.03-3.09-7.32-7.03-7.66V23.7
	c1.54-0.11,2.97-0.61,4.19-1.39l11.73,14.93c-1.48,1.4-2.4,3.38-2.4,5.58c0,4.25,3.45,7.7,7.7,7.7s7.7-3.45,7.7-7.7
	S61.29,35.12,57.04,35.12z"/>
</svg>
