<?xml version="1.0" encoding="utf-8"?>
<!-- Generator: Adobe Illustrator 23.0.1, SVG Export Plug-In . SVG Version: 6.00 Build 0)  -->
<svg version="1.1" id="Calque_1" xmlns="http://www.w3.org/2000/svg" xmlns:xlink="http://www.w3.org/1999/xlink" x="0px" y="0px"
	 viewBox="0 0 77.53 80.9" style="enable-background:new 0 0 77.53 80.9;" xml:space="preserve">
<style type="text/css">
	.st0{fill:url(#SVGID_1_);}
	.st1{fill:none;stroke:#FFFFFF;stroke-width:2;stroke-miterlimit:10;}
	.st2{fill-rule:evenodd;clip-rule:evenodd;fill:#FFFFFF;}
	.st3{fill:#FFFFFF;}
	.st4{fill:url(#SVGID_2_);}
</style>
<g>
	<g>
		<linearGradient id="SVGID_1_" gradientUnits="userSpaceOnUse" x1="12.6467" y1="58.0658" x2="64.8814" y2="22.8331">
			<stop  offset="0" style="stop-color:#76B46D"/>
			<stop  offset="1" style="stop-color:#3B3686"/>
		</linearGradient>
		<circle class="st0" cx="38.76" cy="40.45" r="31.5"/>
	</g>
	<g>
		<g>
			<g>
				<path class="st1" d="M53.84,58.77H23.68c-1.79,0-3.24-1.45-3.24-3.24V25.37c0-1.79,1.45-3.24,3.24-3.24h30.16
					c1.79,0,3.24,1.45,3.24,3.24v30.16C57.08,57.32,55.63,58.77,53.84,58.77z"/>
			</g>
		</g>
		<g>
			<path class="st2" d="M33.31,42.33h12.46v2.75H33.31V42.33z M26.61,42.33h2.75v2.75h-2.75V42.33z M33.31,49.02h12.46v2.75H33.31
				V49.02z M26.61,49.02h2.75v2.75h-2.75V49.02z"/>
		</g>
	</g>
	<g>
		<path class="st3" d="M44.68,32.63c0.21,0.21,0.32,0.48,0.32,0.8s-0.11,0.59-0.32,0.8c-0.21,0.21-0.48,0.32-0.8,0.32h-3.99v3.96
			c0,0.32-0.11,0.6-0.32,0.82c-0.21,0.22-0.48,0.33-0.8,0.33s-0.59-0.11-0.8-0.33c-0.21-0.22-0.32-0.49-0.32-0.82v-3.96h-3.99
			c-0.32,0-0.59-0.11-0.8-0.32c-0.21-0.21-0.32-0.48-0.32-0.8s0.11-0.59,0.32-0.8c0.21-0.21,0.48-0.32,0.8-0.32h3.99v-3.99
			c0-0.32,0.11-0.59,0.32-0.8c0.21-0.21,0.48-0.32,0.8-0.32s0.59,0.11,0.8,0.32c0.21,0.21,0.32,0.48,0.32,0.8v3.99h3.99
			C44.2,32.31,44.47,32.42,44.68,32.63z"/>
	</g>
</g>
</svg>
