<?xml version="1.0" encoding="utf-8"?>
<!-- Generator: Adobe Illustrator 23.0.1, SVG Export Plug-In . SVG Version: 6.00 Build 0)  -->
<svg version="1.1" id="Calque_1" xmlns="http://www.w3.org/2000/svg" xmlns:xlink="http://www.w3.org/1999/xlink" x="0px" y="0px"
	 viewBox="0 0 103.46 85.04" style="enable-background:new 0 0 103.46 85.04;" xml:space="preserve">
<style type="text/css">
	.st0{fill:url(#SVGID_1_);}
	.st1{fill:url(#SVGID_2_);}
	.st2{fill:url(#SVGID_3_);}
</style>
<g>
	<linearGradient id="SVGID_1_" gradientUnits="userSpaceOnUse" x1="13.6975" y1="50.0271" x2="96.2928" y2="50.0271">
		<stop  offset="0" style="stop-color:#3B3686"/>
		<stop  offset="1" style="stop-color:#52AC6E"/>
	</linearGradient>
	<path class="st0" d="M15.46,70.23c0.41,0,0.82-0.14,1.16-0.44l28.67-25.24l18.1,18.1c0.69,0.69,1.79,0.69,2.48,0
		c0.69-0.69,0.69-1.79,0-2.48l-8.44-8.45l16.13-17.67L93.35,52.2c0.72,0.66,1.83,0.61,2.49-0.1c0.65-0.72,0.6-1.83-0.11-2.49
		L74.63,30.28c-0.34-0.31-0.8-0.46-1.26-0.45c-0.46,0.02-0.91,0.22-1.22,0.56L54.94,49.24L46.6,40.9c-0.65-0.66-1.71-0.69-2.4-0.08
		L14.29,67.15c-0.73,0.64-0.8,1.76-0.15,2.49C14.48,70.04,14.97,70.23,15.46,70.23L15.46,70.23z"/>
	<linearGradient id="SVGID_2_" gradientUnits="userSpaceOnUse" x1="12.0099" y1="29.82" x2="31.582" y2="29.82">
		<stop  offset="0" style="stop-color:#3B3686"/>
		<stop  offset="1" style="stop-color:#52AC6E"/>
	</linearGradient>
	<path class="st1" d="M21.8,39.61c5.4,0,9.78-4.39,9.78-9.78c0-5.41-4.38-9.79-9.78-9.79c-5.4,0-9.79,4.38-9.79,9.78
		C12.01,35.21,16.4,39.61,21.8,39.61L21.8,39.61z M21.8,23.54c3.46,0,6.27,2.82,6.27,6.27c0,3.46-2.81,6.27-6.27,6.27
		s-6.27-2.81-6.27-6.26C15.53,26.37,18.34,23.54,21.8,23.54L21.8,23.54z M21.8,23.54"/>
	<g>
		<g>
			<linearGradient id="SVGID_3_" gradientUnits="userSpaceOnUse" x1="0.8086" y1="42.5197" x2="102.7287" y2="42.5197">
				<stop  offset="0" style="stop-color:#3B3686"/>
				<stop  offset="1" style="stop-color:#52AC6E"/>
			</linearGradient>
			<path class="st2" d="M100.98,2.1H2.57c-0.97,0-1.76,0.79-1.76,1.76v77.32c0,0.97,0.79,1.76,1.76,1.76h98.41
				c0.97,0,1.75-0.79,1.75-1.76V3.86C102.73,2.89,101.95,2.1,100.98,2.1L100.98,2.1z M99.22,79.42H4.33V5.62h94.89V79.42z
				 M99.22,79.42"/>
		</g>
	</g>
</g>
</svg>
