<?xml version="1.0" encoding="utf-8"?>
<!-- Generator: Adobe Illustrator 23.0.1, SVG Export Plug-In . SVG Version: 6.00 Build 0)  -->
<svg version="1.1" id="Calque_1" xmlns="http://www.w3.org/2000/svg" xmlns:xlink="http://www.w3.org/1999/xlink" x="0px" y="0px"
	 viewBox="0 0 22.51 24.5" style="enable-background:new 0 0 22.51 24.5;" xml:space="preserve">
<style type="text/css">
	.st0{fill:url(#SVGID_1_);}
</style>
<g>
	<linearGradient id="SVGID_1_" gradientUnits="userSpaceOnUse" x1="1.5324" y1="12.2509" x2="20.9768" y2="12.2509">
		<stop  offset="0" style="stop-color:#3B3686"/>
		<stop  offset="1" style="stop-color:#52AC6E"/>
	</linearGradient>
	<path class="st0" d="M20.48,11c0.33,0.33,0.5,0.75,0.5,1.26c0,0.5-0.17,0.92-0.5,1.25c-0.33,0.33-0.75,0.5-1.25,0.5h-6.22v6.18
		c0,0.5-0.17,0.93-0.5,1.27c-0.33,0.35-0.75,0.52-1.26,0.52S10.33,21.8,10,21.46s-0.5-0.77-0.5-1.27V14H3.29
		c-0.5,0-0.92-0.17-1.25-0.5c-0.33-0.33-0.5-0.75-0.5-1.25c0-0.5,0.17-0.92,0.5-1.26c0.33-0.33,0.75-0.5,1.25-0.5H9.5V4.28
		c0-0.5,0.17-0.92,0.5-1.25s0.75-0.5,1.25-0.5s0.92,0.17,1.26,0.5c0.33,0.33,0.5,0.75,0.5,1.25v6.22h6.22
		C19.73,10.5,20.15,10.66,20.48,11z"/>
</g>
</svg>
