<?xml version="1.0" encoding="utf-8"?>
<!-- Generator: Adobe Illustrator 23.0.1, SVG Export Plug-In . SVG Version: 6.00 Build 0)  -->
<svg version="1.1" id="Calque_1" xmlns="http://www.w3.org/2000/svg" xmlns:xlink="http://www.w3.org/1999/xlink" x="0px" y="0px"
	 viewBox="0 0 595.28 841.89" style="enable-background:new 0 0 595.28 841.89;" xml:space="preserve">
<style type="text/css">
	.st0{opacity:0.9;fill:#F2F2F2;enable-background:new    ;}
	.st1{fill:url(#SVGID_1_);}
	.st2{fill:url(#SVGID_2_);}
	.st3{fill:url(#SVGID_3_);}
	.st4{fill:url(#SVGID_4_);}
	.st5{fill:url(#SVGID_5_);}
	.st6{fill:#B4B4B4;}
	.st7{fill:#4A7437;}
	.st8{fill:#8BBE50;stroke:#2F4123;stroke-miterlimit:10;}
	.st9{fill:#3E6531;stroke:#2F4123;stroke-miterlimit:10;}
	.st10{fill:#497337;}
	.st11{fill:#2F4224;}
	.st12{fill:none;stroke:#3C3C3B;stroke-miterlimit:10;}
	.st13{fill:#87BD4E;stroke:#2F4123;stroke-width:0.5;stroke-miterlimit:10;}
	.st14{fill:#578E3D;}
	.st15{fill:#FFFFFF;}
	.st16{fill:#5B943D;}
</style>
<g>
	
		<ellipse transform="matrix(0.1602 -0.9871 0.9871 0.1602 108.2664 769.1859)" class="st0" cx="506.17" cy="320.97" rx="53.66" ry="53.66"/>
</g>
<g>
	<circle class="st0" cx="308.23" cy="209.97" r="53.66"/>
</g>
<g>
	<circle class="st0" cx="507.39" cy="553.8" r="53.66"/>
</g>
<g>
	<circle class="st0" cx="308.23" cy="670.05" r="53.66"/>
</g>
<g>
	<circle class="st0" cx="110.21" cy="555.83" r="53.66"/>
</g>
<g>
	<circle class="st0" cx="111.98" cy="325.99" r="53.66"/>
</g>
<linearGradient id="SVGID_1_" gradientUnits="userSpaceOnUse" x1="199.1817" y1="-394.7834" x2="246.3424" y2="-394.7834" gradientTransform="matrix(2.8648 0 0 2.8648 -527.9587 1686.8005)">
	<stop  offset="0" style="stop-color:#3B3686"/>
	<stop  offset="1" style="stop-color:#52AC6E"/>
</linearGradient>
<circle class="st1" cx="110.21" cy="555.83" r="67.55"/>
<linearGradient id="SVGID_2_" gradientUnits="userSpaceOnUse" x1="337.8249" y1="-395.4896" x2="384.9856" y2="-395.4896" gradientTransform="matrix(2.8648 0 0 2.8648 -527.9587 1686.8005)">
	<stop  offset="0" style="stop-color:#3B3686"/>
	<stop  offset="1" style="stop-color:#52AC6E"/>
</linearGradient>
<circle class="st2" cx="507.39" cy="553.8" r="67.55"/>
<linearGradient id="SVGID_3_" gradientUnits="userSpaceOnUse" x1="337.3966" y1="-476.764" x2="384.5573" y2="-476.764" gradientTransform="matrix(2.8648 0 0 2.8648 -527.9587 1686.8005)">
	<stop  offset="0" style="stop-color:#3B3686"/>
	<stop  offset="1" style="stop-color:#52AC6E"/>
</linearGradient>
<circle class="st3" cx="506.17" cy="320.97" r="67.55"/>
<linearGradient id="SVGID_4_" gradientUnits="userSpaceOnUse" x1="268.3041" y1="-515.5101" x2="315.4648" y2="-515.5101" gradientTransform="matrix(2.8648 0 0 2.8648 -527.9587 1686.8005)">
	<stop  offset="0" style="stop-color:#3B3686"/>
	<stop  offset="1" style="stop-color:#52AC6E"/>
</linearGradient>
<circle class="st4" cx="308.23" cy="209.97" r="67.55"/>
<linearGradient id="SVGID_5_" gradientUnits="userSpaceOnUse" x1="268.3038" y1="-354.9119" x2="315.4645" y2="-354.9119" gradientTransform="matrix(2.8648 0 0 2.8648 -527.9587 1686.8005)">
	<stop  offset="0" style="stop-color:#3B3686"/>
	<stop  offset="1" style="stop-color:#52AC6E"/>
</linearGradient>
<circle class="st5" cx="308.23" cy="670.05" r="67.55"/>
<g>
	<path class="st6" d="M123.79,317.82c2.75,1.56,4.9,3.74,6.46,6.55c1.56,2.8,2.32,6.04,2.32,9.69c0,3.6-0.79,6.83-2.41,9.69
		c-1.62,2.86-3.83,5.1-6.72,6.71c-2.86,1.61-6.09,2.41-9.69,2.41c-7.08,0-12.52-2.46-16.35-7.37c-3.82-4.9-5.75-11.93-5.75-21.05
		c0-6.52,0.88-12.13,2.66-16.83c1.79-4.7,4.33-8.27,7.71-10.77c3.37-2.49,7.37-3.74,12.01-3.74c3.14,0,6.29,0.6,9.41,1.81
		c3.12,1.22,5.78,2.86,7.99,4.96c0.93,0.88,1.42,1.81,1.42,2.81c0,0.82-0.23,1.53-0.65,2.07c-0.45,0.57-0.96,0.82-1.59,0.82
		c-0.76,0-1.59-0.31-2.41-0.91c-4.82-3.91-9.46-5.89-14-5.89c-4.93,0-8.76,2.24-11.5,6.72s-4.14,10.74-4.14,18.82v1.08
		c1.28-3.09,3.32-5.52,6.18-7.28c2.83-1.76,6.06-2.66,9.66-2.66C117.9,315.5,121.04,316.29,123.79,317.82z M122.49,343.6
		c2.27-2.38,3.4-5.52,3.4-9.43s-1.13-7.06-3.43-9.41c-2.29-2.35-5.33-3.51-9.07-3.51c-3.82,0-6.91,1.19-9.32,3.6
		c-2.41,2.41-3.6,5.5-3.6,9.32c0,3.85,1.19,7,3.6,9.41s5.53,3.6,9.41,3.6C117.19,347.15,120.22,345.96,122.49,343.6z"/>
</g>
<g>
	<path class="st7" d="M303.93,296.38c-78.83,0-142.74,63.91-142.74,142.71c0,78.83,63.91,142.71,142.74,142.71
		c78.83,0,142.71-63.91,142.71-142.71C446.67,360.26,382.76,296.38,303.93,296.38z M303.93,564.16c-69.06,0-125.07-56-125.07-125.06
		c0-69.06,56-125.07,125.07-125.07c69.06,0,125.06,56,125.06,125.07C428.99,508.16,372.99,564.16,303.93,564.16z"/>
	<g>
		<path class="st8" d="M253.99,492.35l-0.72,28.45c0,0-1.46,6.56-4.01,8.39c0,0-2.18,4.38,2.18,4.38l19.68,0.37
			c0,0,6.56-0.72,1.09-4.01c0,0-11.66-4.73-11.66-14.58l0.74-22.6L253.99,492.35z"/>
		<path class="st8" d="M282.5,492.35l-0.72,28.45c0,0-1.46,6.56-4.01,8.39c0,0-2.18,4.38,2.18,4.38l19.68,0.37
			c0,0,6.56-0.72,1.09-4.01c0,0-11.66-4.73-11.66-14.58l0.74-22.6L282.5,492.35z"/>
		<path class="st9" d="M292.38,408.5c0,0-4.76-11.23-34.67-10.89c0,0-3.75-1.69-3.75,4.76c0,0-9.51,0.34-14.27,4.07
			c0,0-12.92,6.45-16.3,11.55c0,0-4.41,4.07-1.35,5.79c0,0-8.82,4.76-12.23,31.6c0,0-1.03,4.76,3.41,6.79c0,0,2.03,2.03,1.35,4.76
			c0,0-0.34,7.13,8.51,18.36c0,0,2.72,4.41,6.79,4.41c0,0,2.03-0.34,4.76,1.35c0,0,6.13,6.45,12.92,8.51l2.03,2.03l5.79-2.03
			c0,0,4.76,1.35,5.79,2.03s2.38,0.34,3.41-1.35c0,0,1.03-1.38,3.41-0.69c0,0,5.44,2.38,7.13,2.72c0,0,1.35,0.69,3.07-2.03
			c0,0,1.69-1.35,4.41-1.35c0,0,2.72-0.69,6.13,1.69c0,0,4.07,1.35,4.41-3.07c0,0,6.13,2.03,11.2,3.07c0,0,12.23,2.38,24.12-4.41
			c0,0-1.35,3.07,2.72,2.38c0,0,9.51,0.34,21.74-20.05c0,0,1.35-1.35,3.06-1.35c0,0,2.04,0,4.41-4.41c0,0,4.07-13.58,4.07-23.46
			c0,0,0.69-2.03,2.38-3.41c0,0,1.03-10.2-6.79-20.05c0,0-3.07-3.41,0-5.1c0,0,4.76-3.07,6.45-5.1l12.23-21.74l-1.35-0.69l2.38-1.69
			c0,0,2.04-2.03-1.69-3.07l-2.03-1.35c0,0-2.72-0.69-3.07-5.1c0,0-1.35-8.82-11.55-16.64c0,0-7.13-5.79-12.58-5.79
			c0,0-3.41,0-2.72-3.75c0,0-1.69-3.41-7.13,0.69c0,0-1.35,1.35-2.72-1.03c0,0-3.41-6.45-7.82,0.69c0,0-11.89-1.69-6.79,3.41
			c0,0-30.6,13.58-26.84,45.21C294.76,404.77,294.76,408.5,292.38,408.5z"/>
		<path class="st10" d="M346.41,427.89c0,0,1.69,10.89,0.69,14.95c-1.03,4.07-2.38,11.55-4.76,15.99
			c-2.38,4.41-6.45,13.61-10.2,15.64c-3.75,2.03-6.45,5.79-9.51,6.13c-3.07,0.34-5.1,0.34-9.17,1.35c-4.07,1.03-9.17,0.69-12.58,0
			c-3.41-0.69-5.44-0.34-8.82,0.34c-3.41,0.69-7.82,2.72-7.82,2.72s-0.69-0.34-3.75-1.03s-5.79-0.69-9.17-0.69
			c-3.41,0-7.48,1.38-10.2,0.69s-3.07-3.41-7.82-3.75s-3.41,0.34-6.45-0.34c-3.07-0.69-2.72-0.35-7.13-2.72
			c-4.41-2.38-3.07-2.72-7.13-5.79s-6.45-7.13-6.45-7.13s-2.03-5.44-1.69-9.51s-0.69-5.79,1.35-10.54s0.34-8.82,3.41-11.89
			s5.1-5.44,7.82-8.17c2.72-2.72,3.72-4.76,7.13-6.45c3.41-1.69,3.72-4.41,3.72-4.41s1.69,0,4.07,0c2.38,0,3.07-2.03,4.07-2.38
			c1.03-0.34,3.07,0.69,4.76,0.69s5.1-3.41,8.82-2.38s6.45,1.35,10.2,3.07c3.72,1.69,6.1,2.72,9.86,3.41s8.82,2.38,9.86,2.03
			s3.73-2.03,1.35-4.07c-2.38-2.03-4.76-2.38-4.76-4.41c0-2.03,4.41-2.03,4.41-2.03s6.45,12.58,8.82,13.92
			c2.38,1.35,10.2,6.13,17.33,6.13C333.84,427.2,346.41,427.89,346.41,427.89z"/>
		<path class="st11" d="M356.27,423.8c0,0,2.2-0.6,3.73,2.03c0,0-3.07,3.41-7.82,4.41c-4.76,1.03-9.17,0.69-12.23,0.69
			c-3.06,0-5.44,0-7.82,0.34c-2.38,0.34-0.69,0.34-5.79-1.35s-4.07-0.69-8.16-2.38c-4.07-1.69-4.41-1.03-7.82-3.41
			c-3.41-2.38-4.76-6.13-6.79-8.82c-2.03-2.72-2.72-4.76-4.07-6.79s-4.07-7.48-4.41-8.51s2.55-0.89,4.41,3.07
			c0.98,2.06,3.41,6.79,4.41,8.17c1.03,1.35,5.1,8.17,7.48,9.51c2.38,1.35,5.79,3.41,8.51,3.41c2.72,0,0.34-1.03,1.03-3.73
			c0.69-2.72-0.69,3.41,5.44,3.73c6.13,0.34,8.51,1.35,12.23,1.35c3.75,0,10.89-1.35,12.92-1.69
			C353.55,423.45,356.27,423.8,356.27,423.8z"/>
		<path class="st10" d="M308.86,369.94c0,0,6.96-5.61,18.51-7.31s19.71,0.34,22.09,1.35c2.38,1.03,9.51,3.41,14.61,8.51
			c5.1,5.1,7.14,11.55,7.48,14.27s4.07,4.07,4.07,4.07s1.35,3.41-0.34,5.1c-1.69,1.69-22.09,10.54-24.81,12.58
			c-2.72,2.03-6.13,5.1-10.89,6.79c-4.75,1.69-4.41,3.41-10.54,1.35c-6.13-2.03-6.7-1.86-11.29-4.41c-4.41-2.46-7.48-5.3-9.94-9.42
			c-2.89-4.84-4.01-7.73-5.1-10.97c-1.26-3.81-0.2-10.71,0.26-12.49C304.79,372.49,308.86,369.94,308.86,369.94z"/>
		<path d="M339.63,406.12c0,1.49-1.2,2.72-2.72,2.72c-1.49,0-2.72-1.2-2.72-2.72c0-1.49,1.2-2.72,2.72-2.72
			C338.39,403.4,339.63,404.63,339.63,406.12z"/>
		<path class="st12" d="M328.74,386.41c0,0-0.69-6.45,7.48-1.69"/>
		<path class="st13" d="M387.21,406.46c0,0-0.86,5.27-14.95,8.82c0,0-7.99,2.21-15.64-1.03c0,0-7.48-4.07-1.35-7.13L387.21,406.46z"
			/>
		<path class="st13" d="M462.64,410.22c0,0-92.88-1.2-105.68-0.34c0,0-5.79-0.17-3.07-7.48c0,0,2.38-7.48,16.3-8.17
			c0,0,58.13,0.35,86.32,9.17C456.54,403.4,467.74,408.18,462.64,410.22z"/>
		<path class="st14" d="M360.71,396.61c0,0-2.72,6.13,4.07,6.13c0,0,53.03-0.34,76.12,6.45h-52h-1.69c0,0-9.51,5.44-17.68,5.79
			c0,0-16.99,1.86-16.3-10.71C353.23,404.26,354.58,398.07,360.71,396.61z"/>
		<path class="st15" d="M340.74,441.3c0,0-4.58,20.91-3.81,30.6l5.87,1.26c0,0,0.26-9.68,3.81-10.46l4.07,8.17l7.13-0.52l-6.13-11.2
			l6.36-8.68l-6.13-0.52l-6.88,8.16l3.06-15.56L340.74,441.3z"/>
		<path class="st16" d="M295.56,527.59c0,0,0.49,4.1-10.69,4.35l-5.59-1.06c0,0-1.69,1.86-0.37,2.12s20.91,0.37,20.91,0.37
			s3.78-0.31,2.09-1.92C300.52,530.14,295.56,527.59,295.56,527.59z"/>
		<path class="st16" d="M267.06,527.59c0,0,0.49,4.1-10.69,4.35l-5.59-1.06c0,0-1.69,1.86-0.37,2.12s20.91,0.37,20.91,0.37
			s3.78-0.31,2.09-1.92C272.04,530.14,267.06,527.59,267.06,527.59z"/>
	</g>
</g>
<g>
	<path class="st15" d="M121.24,550.34c2.81,1.58,4.98,3.75,6.53,6.59s2.29,6.07,2.29,9.77s-0.83,6.96-2.52,9.85
		c-1.66,2.86-4.01,5.1-6.99,6.7c-2.98,1.6-6.44,2.38-10.34,2.38c-3.47,0-6.85-0.6-10.14-1.83c-3.29-1.23-6.1-2.89-8.36-5.01
		c-0.89-0.83-1.35-1.78-1.35-2.84c0-0.83,0.23-1.55,0.66-2.09c0.46-0.54,0.97-0.83,1.61-0.83c0.77,0,1.57,0.31,2.35,0.92
		c2.46,2.01,4.9,3.49,7.36,4.47c2.46,0.97,5.01,1.46,7.71,1.46c4.13,0,7.36-1.17,9.71-3.52c2.35-2.35,3.52-5.53,3.52-9.54
		c0-3.9-1.17-7.08-3.52-9.45c-2.35-2.41-5.5-3.61-9.45-3.61c-5.07,0-9.22,1.95-12.4,5.87c-0.77,0.83-1.72,1.26-2.84,1.26
		c-0.77,0-1.43-0.23-1.98-0.72s-0.8-1.12-0.8-1.98v-28.91c0-0.95,0.29-1.72,0.89-2.35c0.57-0.6,1.4-0.92,2.46-0.92h29.48
		c1,0,1.81,0.26,2.38,0.74c0.6,0.52,0.89,1.2,0.89,2.09c0,0.89-0.29,1.6-0.89,2.09c-0.57,0.52-1.38,0.74-2.38,0.74H99.07v21.03
		c1.55-1.52,3.38-2.66,5.5-3.47c2.12-0.8,4.36-1.2,6.82-1.2C115.14,547.99,118.43,548.76,121.24,550.34z"/>
</g>
<g>
	<path class="st15" d="M326.71,233.84c0.55,0.52,0.84,1.21,0.84,2.1c0,0.95-0.26,1.67-0.81,2.19c-0.55,0.52-1.33,0.75-2.39,0.75
		h-27.88c-1.07,0-1.87-0.26-2.39-0.75c-0.52-0.49-0.81-1.24-0.81-2.19c0-0.89,0.29-1.61,0.83-2.1c0.55-0.52,1.35-0.75,2.36-0.75
		h10.45v-45.16l-9.19,5.99c-0.46,0.29-0.89,0.43-1.35,0.43c-0.78,0-1.47-0.38-2.07-1.09c-0.6-0.72-0.89-1.53-0.89-2.36
		c0-1.18,0.46-2.01,1.35-2.53l12.82-8.32c0.95-0.6,1.93-0.92,2.94-0.92c0.95,0,1.73,0.32,2.36,0.92c0.61,0.6,0.92,1.5,0.92,2.62
		v50.43h10.54C325.36,233.09,326.14,233.32,326.71,233.84z"/>
</g>
<g>
	<path class="st15" d="M524.35,558.2c1.86,2.46,2.81,5.5,2.81,9.14c0,5.13-1.75,9.2-5.19,12.15c-3.47,2.95-8.19,4.44-14.15,4.44
		c-3.64,0-7.1-0.6-10.43-1.83c-3.32-1.23-6.13-2.89-8.42-5.01c-0.89-0.83-1.35-1.78-1.35-2.84c0-0.83,0.23-1.55,0.66-2.09
		c0.46-0.54,0.97-0.83,1.57-0.83c0.77,0,1.55,0.31,2.35,0.92c2.58,2.06,5.07,3.58,7.54,4.53c2.46,0.95,5.1,1.43,7.96,1.43
		c4.13,0,7.28-0.95,9.43-2.84s3.24-4.64,3.24-8.22c0-7.19-4.53-10.8-13.58-10.8h-4.44c-0.89,0-1.61-0.29-2.15-0.89
		c-0.54-0.57-0.8-1.26-0.8-2.06c0-0.77,0.26-1.46,0.8-2.01c0.52-0.54,1.23-0.83,2.15-0.83h3.09c4.35,0,7.71-0.97,10.05-2.89
		c2.35-1.92,3.52-4.7,3.52-8.34c0-3.18-0.95-5.61-2.84-7.33c-1.89-1.69-4.58-2.55-8.05-2.55c-2.64,0-5.16,0.49-7.62,1.46
		c-2.46,0.97-4.9,2.46-7.36,4.47c-0.77,0.6-1.58,0.92-2.35,0.92c-0.6,0-1.14-0.29-1.6-0.83c-0.46-0.54-0.66-1.26-0.66-2.09
		c0-1.06,0.46-2.01,1.35-2.84c2.29-2.12,5.07-3.81,8.34-5.01c3.27-1.23,6.62-1.83,10.08-1.83c5.36,0,9.63,1.35,12.78,4.07
		c3.15,2.72,4.73,6.36,4.73,10.94c0,3.41-0.86,6.39-2.55,8.91c-1.69,2.55-4.07,4.38-7.08,5.5
		C519.74,554.02,522.46,555.74,524.35,558.2z"/>
</g>
<g>
	<path class="st15" d="M329.5,681.87c0.55,0.54,0.83,1.2,0.83,2.06c0,1.89-1.06,2.84-3.18,2.84h-6.27v9.71
		c0,1.12-0.31,1.98-0.97,2.61c-0.66,0.63-1.46,0.92-2.46,0.92c-1,0-1.8-0.32-2.44-0.92c-0.6-0.6-0.92-1.49-0.92-2.61v-9.71h-24.78
		c-1,0-1.77-0.29-2.35-0.83c-0.57-0.54-0.83-1.26-0.83-2.09c0-0.77,0.31-1.63,0.92-2.61l27.39-39.62c0.77-1,1.77-1.52,3.01-1.52
		c0.95,0,1.75,0.32,2.44,0.92c0.66,0.6,1,1.49,1,2.61v37.44h6.27C328.18,681.06,328.96,681.35,329.5,681.87z M293.92,681.06h20.2
		v-29.08L293.92,681.06z"/>
</g>
<g>
	<path class="st15" d="M525.49,345.83c0.54,0.52,0.83,1.2,0.83,2.09c0,1.95-1.06,2.92-3.18,2.92h-32.83c-0.95,0-1.72-0.29-2.35-0.89
		c-0.6-0.57-0.92-1.29-0.92-2.15c0-1.06,0.4-1.98,1.18-2.75l20.2-22.2c2.78-3.12,4.81-5.93,6.07-8.42c1.26-2.49,1.89-4.98,1.89-7.51
		c0-3.24-0.95-5.73-2.81-7.45c-1.86-1.72-4.5-2.61-7.91-2.61c-2.69,0-5.24,0.49-7.7,1.46c-2.46,0.97-4.93,2.46-7.36,4.47
		c-0.83,0.66-1.63,1-2.35,1c-0.6,0-1.14-0.29-1.58-0.89c-0.46-0.57-0.66-1.29-0.66-2.15c0-1.17,0.46-2.12,1.35-2.84
		c2.29-2.12,5.07-3.81,8.36-5.01c3.29-1.23,6.67-1.83,10.14-1.83c5.3,0,9.54,1.4,12.69,4.18c3.15,2.81,4.73,6.56,4.73,11.32
		c0,3.41-0.77,6.67-2.29,9.8c-1.55,3.12-4.07,6.62-7.59,10.46L496.64,345h26.56C524.15,345.09,524.92,345.35,525.49,345.83z"/>
</g>
</svg>
