<?xml version="1.0" encoding="utf-8"?>
<!-- Generator: Adobe Illustrator 23.0.1, SVG Export Plug-In . SVG Version: 6.00 Build 0)  -->
<svg version="1.1" id="Calque_1" xmlns="http://www.w3.org/2000/svg" xmlns:xlink="http://www.w3.org/1999/xlink" x="0px" y="0px"
	 viewBox="0 0 181.08 116.22" style="enable-background:new 0 0 181.08 116.22;" xml:space="preserve">
<style type="text/css">
	.st0{fill-rule:evenodd;clip-rule:evenodd;fill:url(#SVGID_1_);}
	.st1{fill-rule:evenodd;clip-rule:evenodd;fill:url(#SVGID_2_);}
</style>
<g>
	<linearGradient id="SVGID_1_" gradientUnits="userSpaceOnUse" x1="10.054" y1="68.1763" x2="167.4427" y2="68.1763">
		<stop  offset="0" style="stop-color:#3B3686"/>
		<stop  offset="1" style="stop-color:#52AC6E"/>
	</linearGradient>
	<path class="st0" d="M167.44,37.82c-2.73,3.65-5.16,7.6-8.24,10.89c-5.77,6.15-12.98,10.11-20.64,13.03
		c-12.11,4.61-22.92,11.34-32.71,20.13c-4.41,3.96-9.59,6.98-14.44,10.43c4.03,3.09,8.55,6.66,9.12,13.53c-16.08,0-31.97,0-48.2,0
		c0.78-7.31,5.68-11.19,11.9-15.27c-5.76-2.53-10.68-5.12-15.86-6.86c-9.95-3.34-19.14-7.85-26.58-15.76
		C14,59.65,10.36,49.6,10.06,38.15c-0.18-6.9,4.09-9.37,10.12-6.35c6.87,3.44,13.88,6.6,20.85,9.83c2.9,1.34,5.5,1.26,8.45-0.61
		c5.08-3.22,10.63-4.88,16.84-4.56c8.32,0.43,16.67,0.28,25.01,0.04c4.54-0.13,8.27,1.25,11.87,4.07c3.31,2.6,6.86,4.96,10.56,6.87
		c11.48,5.92,34.01,0.66,40.22-9.31c0.48-0.76,1.62-1.45,2.48-1.49c3.33-0.17,6.67-0.07,10-0.07
		C166.79,36.99,167.12,37.4,167.44,37.82z M23.96,48.4c3.64,9.35,9.96,15.16,18.3,19.19c-0.67-3.98-1.17-7.66-1.97-11.27
		c-0.21-0.93-1.2-2-2.07-2.37C33.73,52.07,29.15,50.39,23.96,48.4z"/>
	<linearGradient id="SVGID_2_" gradientUnits="userSpaceOnUse" x1="58.3689" y1="20.7172" x2="94.4966" y2="20.7172">
		<stop  offset="0" style="stop-color:#3B3686"/>
		<stop  offset="1" style="stop-color:#52AC6E"/>
	</linearGradient>
	<path class="st1" d="M93.76,30.22c-11.52,0-23.05,0-35.39,0c4.36-6.64,7.38-13.83,14.05-17.76c3.92-2.31,8.14-1.32,11.08,2.15
		c3.94,4.65,7.36,9.79,11,14.72C94.25,29.63,94,29.93,93.76,30.22z"/>
</g>
</svg>
